<svg id="ic_naptien" xmlns="http://www.w3.org/2000/svg" width="48" height="48" viewBox="0 0 48 48">
  <rect id="Rectangle_5167" data-name="Rectangle 5167" width="48" height="48" fill="none" opacity="0"/>
  <g id="Group_16142" data-name="Group 16142" transform="translate(4.124 8.222)">
    <path id="Path_16009" data-name="Path 16009" d="M440.359,997.806l-1.549,1.822-1.726,14.134,6.684,2.978,9.96,1.111,8.145-.978,5.445-2.267,1.638-2.578-.62-7.956-.885-4.934-1.992-1.689-9.074-1.645-5.268-.222-9.65,1.511Z" transform="translate(-431.899 -987.335)" fill="#fff"/>
    <path id="Path_16010" data-name="Path 16010" d="M440.839,1002.761a4.162,4.162,0,0,0-1.342,1.561c-1.1,2.888-1.5,12.109-1.5,12.109l5.793,2.551,8.633.952s5.332-.46,7.06-.838a16.5,16.5,0,0,0,4.719-1.942,5.257,5.257,0,0,0,1.42-2.208c.429-1.666-.537-6.816-.537-6.816a17.679,17.679,0,0,0-.767-4.226,4.919,4.919,0,0,0-1.727-1.447c-1.769-.831-5.879-1.159-7.866-1.409a43.419,43.419,0,0,0-5.171.139C447.439,1001.3,442.693,1001.684,440.839,1002.761Z" transform="translate(-432.757 -989.862)" fill="#7bd5f5"/>
    <g id="Group_16082" data-name="Group 16082" transform="translate(9.257 11.024)">
      <path id="Path_16012" data-name="Path 16012" d="M488.5,1018.306v.075c-.064.005-.112.011-.181.021-.309.043-.688.091-1.125.133s-.491.048-.7.058-.528.043-.928.08-.853.059-1.318.075-.891.027-1.264.011-.672-.048-.965-.085a3.974,3.974,0,0,1-.8-.171,1.627,1.627,0,0,1-.56-.293,1.085,1.085,0,0,1-.325-.555,6.368,6.368,0,0,1-.144-1,8.211,8.211,0,0,1-.037-1.077,5.936,5.936,0,0,1,.107-.96,2.234,2.234,0,0,1,.32-.784.954.954,0,0,1,.363-.363,2.376,2.376,0,0,1,.5-.2c.208-.059.448-.117.715-.171s.544-.107.832-.16.784-.154,1.312-.245,1.083-.176,1.632-.261,1.083-.182,1.563-.294c.24-.053.464-.112.651-.171.16,1.638.251,3.419.293,4.513C488.5,1018.093,488.5,1018.195,488.5,1018.306Z" transform="translate(-461.384 -1005.852)" fill="#0af"/>
      <path id="Path_16013" data-name="Path 16013" d="M469.3,1001.859a5.662,5.662,0,0,0-1.157-.464c-.368-.1-.667-.165-.891-.208s-.379-.074-.459-.085-.224-.033-.437-.065-.5-.058-.859-.1-.789-.085-1.365-.133-1.168-.106-1.659-.144-.88-.075-1.168-.1l-.661-.038c-.192-.005-.491-.016-.811-.022s-.667-.011-1.035-.005-.757,0-1.328.005-1.285.011-1.963.032-1.328.043-1.936.075-1.189.064-1.509.08-.549.032-.955.064-.992.091-1.755.171-1.712.192-2.48.3a6.486,6.486,0,0,0-1.435.319c-.277.1-.443.219-.469.347a.244.244,0,0,0,.155.245c-.016-.021.021-.005-.053-.091-.011-.059.011-.107.117-.143a2.556,2.556,0,0,1,.667-.081c.341-.016.8-.021,1.814-.047s1.845-.049,2.491-.075,1.109-.053,1.376-.058.368-.011.928-.022,1.152-.021,1.781-.027,1.291-.005,1.99-.016,1.429-.016,1.824-.021.757-.005,1.1,0,.661.005.949.016l.7.027c.133.005.373.016.72.038s.8.053,1.355.09l1.685.118c.453.026.837.048,1.141.069l.683.048c.149.011.24.021.341.032s.293.027.565.059.624.064,1.072.074A4.608,4.608,0,0,0,469.4,1002C469.652,1002.046,469.652,1002.046,469.3,1001.859Z" transform="translate(-444.964 -1000.5)" fill="#005baa"/>
    </g>
    <ellipse id="Ellipse_1279" data-name="Ellipse 1279" cx="4.225" cy="2.854" rx="4.225" ry="2.854" transform="translate(29.349 3.838) rotate(-27.017)" fill="#ffd172"/>
    <path id="Path_16015" data-name="Path 16015" d="M469.271,1010.423c0-.123-.042-.245-.287-3.371a51.492,51.492,0,0,0-.823-6.155,6.941,6.941,0,0,0-.313-1.36,3.823,3.823,0,0,0-.181-.389c-.064-.123-.127-.235-.191-.341a1.932,1.932,0,0,0-.255-.347,5.108,5.108,0,0,0-.584-.56,5.46,5.46,0,0,0-.855-.576,7.411,7.411,0,0,0-1.105-.48,12.036,12.036,0,0,0-1.822-.443c-.951-.176-2.284-.389-3.474-.56s-2.221-.293-3.108-.368a15.877,15.877,0,0,0-2.226-.064l-.073.006-1.695-.024-.028,0a16.762,16.762,0,0,0-2.226.027q-1.339.088-3.124.3c-1.19.149-2.529.336-3.49.5a12.906,12.906,0,0,0-1.833.405,7.328,7.328,0,0,0-1.121.464,5.453,5.453,0,0,0-.871.555,5.645,5.645,0,0,0-.606.549,2.165,2.165,0,0,0-.266.347c-.069.1-.133.213-.2.331s-.128.251-.191.389a7.042,7.042,0,0,0-.361,1.355,52.726,52.726,0,0,0-1.015,6.139c-.345,3.115-.393,3.238-.4,3.36s-.016.245-.016.373.005.256.011.389.011.272.016.416.043.438.1.731a5.7,5.7,0,0,0,.218.827,3.667,3.667,0,0,0,.351.725,3.736,3.736,0,0,0,.483.629,6.36,6.36,0,0,0,.792.651,10.087,10.087,0,0,0,1.084.677c.4.219.845.437,1.328.651s1.009.421,1.578.629.691.245.813.283.239.075.361.1.244.059.367.085l.361.064c.128.016,2.561.325,4.229.491a28.109,28.109,0,0,0,3.129.176c.372,0,.717-.005,1.041-.016.319.016.664.027,1.036.037a28.937,28.937,0,0,0,3.134-.117c1.673-.133,4.117-.395,4.239-.411s.25-.032.372-.059.244-.043.367-.075.244-.059.367-.1.244-.069.818-.267,1.105-.389,1.594-.6.94-.416,1.349-.629a10.589,10.589,0,0,0,1.11-.651,5.853,5.853,0,0,0,.807-.64,3.486,3.486,0,0,0,.5-.613,3.754,3.754,0,0,0,.377-.726,5.291,5.291,0,0,0,.244-.821c.058-.288.1-.587.117-.731s.021-.277.032-.411.016-.261.021-.389S469.276,1010.546,469.271,1010.423Zm-1.328,1.259a5.086,5.086,0,0,1-.138.661,3.072,3.072,0,0,1-.223.613,3.2,3.2,0,0,1-.292.5,2.415,2.415,0,0,1-.42.427,6.214,6.214,0,0,1-.76.533c-.308.192-.664.389-1.063.587s-.85.384-1.339.576-1.02.389-1.355.5-.425.144-.526.171-.2.048-.3.069-.2.043-.3.059-.207.032-1.472.171-3.7.411-4.468.411H453.2c-.138,0-.266.005-.393.005s-.26-.011-.393-.011c-.622-.016-1.328-.027-2.1-.043s-3.182-.325-4.447-.5-1.365-.181-1.466-.2-.2-.037-.3-.059-.2-.048-.3-.08-.2-.059-.526-.176-.855-.325-1.339-.528-.919-.405-1.312-.6a11.253,11.253,0,0,1-1.047-.6,6.349,6.349,0,0,1-.744-.549,2.484,2.484,0,0,1-.4-.437,2.652,2.652,0,0,1-.276-.5,3.323,3.323,0,0,1-.207-.613,6.106,6.106,0,0,1-.117-.667c-.021-.192-.032-.32-.037-.437s-.011-.24-.011-.357.005-.224.005-.336.011-.213.122-1.819a63.627,63.627,0,0,1,.77-6.625,20.517,20.517,0,0,1,.462-2.149c.048-.128.1-.245.143-.357s.1-.208.149-.3.1-.171.149-.24a2.668,2.668,0,0,1,.356-.421,3.892,3.892,0,0,1,.648-.5,5.043,5.043,0,0,1,.9-.448,7.26,7.26,0,0,1,1.158-.352c.43-.1,1.854-.347,3.129-.549s2.4-.363,3.379-.475,1.8-.2,2.476-.256l.277-.025,2.617.037.134.014c.669.069,1.493.171,2.465.3s2.093.309,3.363.539,2.683.5,3.108.613a7.466,7.466,0,0,1,1.147.373,4.7,4.7,0,0,1,.882.464,3.609,3.609,0,0,1,.637.507,2.817,2.817,0,0,1,.34.432c.043.069.09.149.138.24a2.719,2.719,0,0,1,.138.3c.048.107.09.229.133.357a20.111,20.111,0,0,1,.4,2.16c.085.517.159,1.125.228,1.76-.074-.005-.149-.005-.223-.005-.457-.005-.967.016-1.509.059s-1.1.1-1.668.171-1.094.144-1.493.219l-.962.165c-.282.053-.563.1-.829.16a4.29,4.29,0,0,0-.765.251,1.983,1.983,0,0,0-.675.5,3.515,3.515,0,0,0-.579.912,4.131,4.131,0,0,0-.3,1.109,7.306,7.306,0,0,0-.053,1.184,8.67,8.67,0,0,0,.106,1.211,2.486,2.486,0,0,0,.457,1.109,2.339,2.339,0,0,0,.877.693,4.319,4.319,0,0,0,1.036.3,9.431,9.431,0,0,0,1.041.112c.367.021.807.021,1.275.005s.951-.043,1.4-.075.839-.069,1.132-.1.452-.053.723-.1.707-.117,1.078-.2c.1-.021.181-.048.276-.069C467.964,1011.532,467.954,1011.6,467.943,1011.682Zm.08-1.051c-.064.005-.111.011-.181.021-.308.043-.685.091-1.121.133s-.489.048-.7.059-.526.043-.924.08-.85.059-1.312.075-.887.027-1.259.011-.669-.048-.962-.085a3.947,3.947,0,0,1-.8-.171,1.62,1.62,0,0,1-.558-.293,1.084,1.084,0,0,1-.324-.555,6.389,6.389,0,0,1-.143-1,8.245,8.245,0,0,1-.037-1.077,5.967,5.967,0,0,1,.106-.96,2.233,2.233,0,0,1,.319-.784.952.952,0,0,1,.361-.363,2.361,2.361,0,0,1,.494-.2c.207-.059.446-.117.712-.171s.542-.107.829-.16.781-.155,1.307-.245,1.078-.176,1.626-.261,1.078-.181,1.557-.293c.239-.053.462-.112.648-.171.159,1.638.25,3.419.292,4.512.064,1.611.064,1.712.064,1.824Z" transform="translate(-431.641 -987.231)" fill="#005baa"/>
    <circle id="Ellipse_1281" data-name="Ellipse 1281" cx="7.823" cy="7.823" r="7.823" transform="translate(0.517 15.894)" fill="#fff"/>
    <g id="Group_16086" data-name="Group 16086" transform="translate(0 15.35)">
      <g id="Group_16083" data-name="Group 16083">
        <path id="Path_16021" data-name="Path 16021" d="M440.271,1010.68l.005.036a1.568,1.568,0,0,0,.264.448,12.5,12.5,0,0,1,1.477,1.754,8.949,8.949,0,0,1,.623,1.1,7.675,7.675,0,0,1,.683,3.652,7.587,7.587,0,0,1-.343,1.835,8.018,8.018,0,0,1-.575,1.34,7.611,7.611,0,0,1-13.585-6.849,7.916,7.916,0,0,1,2.075-2.676,7.748,7.748,0,0,1,4.3-1.706,7.6,7.6,0,0,1,2.031.131l.987.267,1.425.571a1.125,1.125,0,0,0,.465.072q.2.024.053-.183a1.512,1.512,0,0,0-.414-.458,3.372,3.372,0,0,0-1.106-.6,8.33,8.33,0,0,0-9.433,13.006,8.649,8.649,0,0,0,2.975,2.34,8.334,8.334,0,0,0,11.853-7.234,8.245,8.245,0,0,0-.171-2.015,7.987,7.987,0,0,0-.834-2.256q-1.459-2.482-2.752-2.578" transform="translate(-427.364 -1008.897)" fill="#005baa"/>
      </g>
      <g id="Group_16084" data-name="Group 16084" transform="translate(5.825 3.287)">
        <path id="Path_16022" data-name="Path 16022" d="M443.643,1022.015a1.54,1.54,0,0,1-.059.416,1.676,1.676,0,0,1-.136.415,1.728,1.728,0,0,1-.195.331,2.081,2.081,0,0,1-.272.325,2.43,2.43,0,0,1-.395.32,2.587,2.587,0,0,1-.512.272,2.757,2.757,0,0,1-.635.176c-.075.011-.144.021-.219.027.027.2.075.72-.08.811-.123.075-.523-.245-.523-.245a.342.342,0,0,1-.2-.347l.016-.229c-.059-.005-.117-.011-.176-.021a3.209,3.209,0,0,1-.475-.128,2.727,2.727,0,0,1-.421-.181,3.009,3.009,0,0,1-.389-.251,1.739,1.739,0,0,1-.357-.357.86.86,0,0,1-.192-.459c-.011-.176-.128-.32-.133-.5a2.435,2.435,0,0,1,.043-.549,1.609,1.609,0,0,1,.192-.507,1.148,1.148,0,0,1,.347-.368.8.8,0,0,1,.464-.149,1,1,0,0,1,.368.112c.075-.021.075-.021-.005.091s-.149.25-.213.336a1.264,1.264,0,0,0-.149.229.892.892,0,0,0-.08.208,1.554,1.554,0,0,0-.027.3,1.324,1.324,0,0,1-.016.331c-.027.1.091.144.117.2a.724.724,0,0,0,.128.166.987.987,0,0,0,.208.17,1.485,1.485,0,0,0,.256.139,1.861,1.861,0,0,0,.293.112,2.955,2.955,0,0,0,.341.064,3.248,3.248,0,0,0,.405.011,2.2,2.2,0,0,0,.464-.059,2.015,2.015,0,0,0,.373-.139,1.737,1.737,0,0,0,.293-.192,2.089,2.089,0,0,0,.213-.192c.048-.053.058-.041.159-.145a1.362,1.362,0,0,1,.076-.25,1.461,1.461,0,0,0,.069-.219.772.772,0,0,0,.021-.213c-.005-.1-.021-.267-.043-.395a1.393,1.393,0,0,0-.065-.3.643.643,0,0,0-.367-.358,2.68,2.68,0,0,0-.32-.128,1.606,1.606,0,0,0-.267-.069c-.1-.016-.208-.037-.347-.059s-.3-.058-.443-.085-.224-.059-.32-.085a2.7,2.7,0,0,1-.3-.117,3.315,3.315,0,0,1-.309-.144,3.256,3.256,0,0,1-.331-.208,4.344,4.344,0,0,1-.379-.331,1.961,1.961,0,0,1-.288-.363,1.456,1.456,0,0,1-.171-.374,2.257,2.257,0,0,1-.069-.395,2.46,2.46,0,0,1,.016-.48,2.244,2.244,0,0,1,.123-.5,2.378,2.378,0,0,1,.229-.469,2.527,2.527,0,0,1,.325-.432,2.1,2.1,0,0,1,.384-.347,1.763,1.763,0,0,1,.432-.229,1.512,1.512,0,0,1,.267-.08l-.021-.272a.357.357,0,0,1,.2-.347s.4-.32.528-.245c.16.091.1.645.075.827a2.419,2.419,0,0,1,.427.091,1.873,1.873,0,0,1,.475.235,1.416,1.416,0,0,1,.373.363,2.416,2.416,0,0,1,.245.432,1.869,1.869,0,0,1,.1.309,1.572,1.572,0,0,1,.027.272,1.462,1.462,0,0,1-.027.267,1.72,1.72,0,0,1-.085.267,1.288,1.288,0,0,1-.149.25.8.8,0,0,1-.171.181.4.4,0,0,1-.325.086c.027,0,0-.005.043-.027a.354.354,0,0,0,.08-.091.778.778,0,0,0,.069-.149c.016-.059.032-.128.048-.2a2.348,2.348,0,0,0,.037-.235,1.1,1.1,0,0,0,0-.187,1.737,1.737,0,0,0-.027-.176.93.93,0,0,0-.064-.171,1.416,1.416,0,0,0-.128-.219,1.19,1.19,0,0,0-.245-.267,1.452,1.452,0,0,0-.272-.171,1.012,1.012,0,0,0-.325-.1,2.208,2.208,0,0,0-.368-.021,1.126,1.126,0,0,0-.3.043,1.213,1.213,0,0,0-.272.112,1.456,1.456,0,0,0-.256.176,1.77,1.77,0,0,0-.443.587,1.172,1.172,0,0,0-.112.315,1.271,1.271,0,0,0-.037.315,1.371,1.371,0,0,0,.027.283,1.056,1.056,0,0,0,.059.171.625.625,0,0,0,.1.165,1.08,1.08,0,0,0,.208.213,3.1,3.1,0,0,0,.277.208c.059.037.128.075.2.112s.16.069.24.1a1.769,1.769,0,0,0,.219.075,1.789,1.789,0,0,0,.277.069c.16.032.293.053.411.075s.235.038.352.064a3.888,3.888,0,0,1,.4.112,3.032,3.032,0,0,1,.5.229,1.472,1.472,0,0,1,.453.395,1.558,1.558,0,0,1,.261.5,2.716,2.716,0,0,1,.123.538A3.277,3.277,0,0,1,443.643,1022.015Z" transform="translate(-438.285 -1015.059)" fill="#005baa"/>
      </g>
      <g id="Group_16085" data-name="Group 16085" transform="translate(1.428 1.476)">
        <path id="Path_16023" data-name="Path 16023" d="M440.162,1012.924l.007.029a1.544,1.544,0,0,0,.269.422,18.2,18.2,0,0,1,1.314,1.432,6.252,6.252,0,0,1,.5.737,6.067,6.067,0,0,1,.681,4.28,6.564,6.564,0,0,1-.349,1.105,5.983,5.983,0,0,1-1.838,2.414,6.042,6.042,0,0,1-9.695-3.735,5.928,5.928,0,0,1,.239-2.961,6.1,6.1,0,0,1,1.381-2.27,5.932,5.932,0,0,1,1.385-1.061,6.255,6.255,0,0,1,1.892-.683,5.88,5.88,0,0,1,1.628-.07,10.944,10.944,0,0,1,1.915.381,1.243,1.243,0,0,0,.531-.02l.095-.047a.762.762,0,0,0-.079-.172,1.577,1.577,0,0,0-.422-.435,3.206,3.206,0,0,0-.989-.418,6.911,6.911,0,0,0-6.6,1.885,6.992,6.992,0,0,0-1.774,3.183,6.948,6.948,0,0,0,10.986,7.185,7.008,7.008,0,0,0,2.651-4.655,6.811,6.811,0,0,0,.025-1.4,6.925,6.925,0,0,0-1.386-3.635,4.494,4.494,0,0,0-1.356-1.241,1.586,1.586,0,0,0-1.006-.243" transform="translate(-430.042 -1011.665)" fill="#005baa"/>
      </g>
    </g>
    <g id="Group_16140" data-name="Group 16140" transform="translate(29.899 0.786)">
      <g id="Group_16137" data-name="Group 16137">
        <path id="Path_16080" data-name="Path 16080" d="M487.386,982.04c.045,0,.1-.053.113-.136a.428.428,0,0,0-.056-.271.99.99,0,0,0-.241-.293,1.494,1.494,0,0,0-.362-.227,2.1,2.1,0,0,0-.408-.138,2.549,2.549,0,0,0-.525-.059c-.234-.005-.5,0-.705.013s-.367.018-.482.029a1.991,1.991,0,0,0-.394.087c-.165.051-.468.143-.725.229s-.468.164-.637.24a5.084,5.084,0,0,0-.668.386c-.361.229-1.035.649-1.224.8a6.2,6.2,0,0,0-.483.436,3.809,3.809,0,0,0-.359.412,4.049,4.049,0,0,0-.26.41,2.511,2.511,0,0,0-.208.467,1.992,1.992,0,0,0-.094.483,1.646,1.646,0,0,0,.033.462,1.7,1.7,0,0,0,.126.361,1.552,1.552,0,0,0,.2.31,1.519,1.519,0,0,0,.369.314,2.1,2.1,0,0,0,.715.282,4.556,4.556,0,0,0,.934.089,6.492,6.492,0,0,0,2.212-.363,7.579,7.579,0,0,0,1.076-.463,6.774,6.774,0,0,0,.887-.542c.176-.137.315-.25.432-.35s.21-.187.286-.267a3.7,3.7,0,0,0,.285-.354c.163-.216.3-.414.418-.6a3.491,3.491,0,0,0,.27-.5,1.876,1.876,0,0,0,.131-.6,1.41,1.41,0,0,0-.152-.835c-.138-.247-.357-.421-.6-.357s-.238.063-.147.115a1.567,1.567,0,0,0,.035.474.563.563,0,0,1,.072.344,2.3,2.3,0,0,1-.084.457,1.743,1.743,0,0,1-.153.312c-.08.135-.188.3-.324.484s-.306.4-.333.434a1.6,1.6,0,0,1-.169.162c-.086.075-.2.169-.339.281a4.21,4.21,0,0,1-.6.4,7.364,7.364,0,0,1-.955.464,6.123,6.123,0,0,1-.957.3,5.586,5.586,0,0,1-.971.127,5.313,5.313,0,0,1-.858-.024,1.935,1.935,0,0,1-.539-.13.869.869,0,0,1-.249-.166.69.69,0,0,1-.093-.125.879.879,0,0,1-.072-.167.659.659,0,0,1-.036-.2,1,1,0,0,1,.03-.259,1.546,1.546,0,0,1,.111-.3,3.229,3.229,0,0,1,.188-.33,2.418,2.418,0,0,1,.239-.307,4.481,4.481,0,0,1,.363-.355,6.247,6.247,0,0,1,.936-.657c.659-.416.732-.475.818-.52a4.286,4.286,0,0,1,.439-.183c.2-.076.462-.161.775-.257s.329-.108.347-.108.125-.009.291-.02.387-.023.659-.037.379-.02.49-.018a2.781,2.781,0,0,1,.322.028,2.987,2.987,0,0,1,.3.058,2.387,2.387,0,0,1,.27.084c.081.031.138.05.175.063a.177.177,0,0,1,.085.051C487.364,982.02,487.4,982.022,487.386,982.04Z" transform="translate(-479.665 -980.915)" fill="#005baa"/>
      </g>
      <g id="Group_16138" data-name="Group 16138" transform="translate(1.061 0.942)">
        <path id="Path_16081" data-name="Path 16081" d="M488.65,982.682a.2.2,0,0,0-.039.056.437.437,0,0,0-.035.084.423.423,0,0,0-.015.1.674.674,0,0,0,.011.127c.008.049.019.108.033.171s.03.13.051.2.042.146.067.225a1.607,1.607,0,0,1,.051.185c0,.021.006.091.017.162s.024.147.04.227.037.167.06.26.052.192.068.25a.458.458,0,0,1,.019.081.421.421,0,0,1,0,.044.351.351,0,0,1-.008.053.56.56,0,0,1-.041.109,2.253,2.253,0,0,1-.2.337,3.725,3.725,0,0,1-.362.438c-.146.153-.317.314-.509.484s-.409.346-.567.471-.255.194-.365.268-.233.15-.371.228-.289.159-.456.242-.349.165-.506.25-.166.09-.223.119a2.342,2.342,0,0,1-.282.112,4.6,4.6,0,0,1-.5.131c-.2.043-.436.081-.706.112s-.519.047-.725.054a2.683,2.683,0,0,1-.511-.026,1.821,1.821,0,0,1-.387-.108,3.31,3.31,0,0,0-.463-.142c-.171-.038-.171-.038-.106.034a.865.865,0,0,0,.1.459,1.159,1.159,0,0,0,.481.392,2.1,2.1,0,0,0,.648.172,4.443,4.443,0,0,0,.789.01c.292-.019.579-.051.832-.093a6.08,6.08,0,0,0,.659-.142,3.655,3.655,0,0,0,.464-.16,1.3,1.3,0,0,0,.246-.131c.023-.022.209-.1.4-.189s.37-.18.532-.269.311-.178.445-.265.256-.171.365-.253.347-.274.565-.463.419-.371.6-.553a5.583,5.583,0,0,0,.471-.541,3.1,3.1,0,0,0,.333-.543,1.692,1.692,0,0,0,.122-.3,1.225,1.225,0,0,0,.032-.17.912.912,0,0,0,0-.174,1.109,1.109,0,0,0-.025-.176c-.013-.058-.049-.165-.079-.261s-.062-.181-.089-.256-.051-.14-.069-.194a1.513,1.513,0,0,1-.045-.166,1.236,1.236,0,0,0-.123-.274c-.048-.084-.1-.16-.145-.228s-.1-.13-.143-.185a1.608,1.608,0,0,0-.137-.142.947.947,0,0,0-.084-.07.592.592,0,0,1-.057-.047.564.564,0,0,1-.051-.055.475.475,0,0,0-.043-.05C488.68,982.684,488.65,982.692,488.65,982.682Z" transform="translate(-481.655 -982.682)" fill="#005baa"/>
      </g>
      <g id="Group_16139" data-name="Group 16139" transform="translate(0.066 3.979)">
        <path id="Path_16082" data-name="Path 16082" d="M479.844,988.375a.986.986,0,0,0-.047.464,4.49,4.49,0,0,0,.059.449,4.336,4.336,0,0,0,.109.457,2.952,2.952,0,0,0,.214.521,1.919,1.919,0,0,0,.287.419c.092.1.168.19.235.266s.125.139.176.192.1.1.145.14.094.078.142.113.1.071.148.1a1.36,1.36,0,0,0,.161.083.836.836,0,0,0,.179.056,1.007,1.007,0,0,0,.189.013.621.621,0,0,0,.178-.03.367.367,0,0,0,.155-.092c.046-.046.081-.12.107-.143s.027-.023.007-.02a.4.4,0,0,1-.089-.082.6.6,0,0,0-.116-.115c-.035-.026-.068-.048-.1-.069l-.1-.061a.374.374,0,0,1-.065-.046c-.015-.014-.035-.03-.058-.052s-.048-.047-.077-.076-.061-.062-.095-.1-.055-.062-.085-.1-.069-.087-.117-.154l-.18-.242a3.128,3.128,0,0,0-.246-.324,1.465,1.465,0,0,1-.236-.342c-.067-.127-.125-.253-.184-.382s-.122-.265-.2-.405a.73.73,0,0,0-.3-.326C479.87,988.362,479.884,988.458,479.844,988.375Z" transform="translate(-479.789 -988.375)" fill="#005baa"/>
      </g>
    </g>
    <path id="Path_16083" data-name="Path 16083" d="M0,8.454l.112.107,4.726,4.6L9.062,8.47,9.1,8.427l.149-.165-.229-.037-.075-.016L6.726,7.835l-.405-1.3.288-5.328L6.747,0H3.915L3.733.635l-.56,7.142L.139,8.422Z" transform="translate(17.47 5.163) rotate(3)" fill="#0af" stroke="rgba(0,0,0,0)" stroke-width="1"/>
    <g id="Group_16141" data-name="Group 16141" transform="translate(16.234 4.619)">
      <path id="Path_16084" data-name="Path 16084" d="M.84,8.372c.416-.1.816-.176,1.195-.24s.741-.117,1.067-.149.309-.032.331-.043a.389.389,0,0,0,.048-.027c.011-.011.016-.021.016.005,0-.24.043-2.437.251-4.539q.144-1.464.384-2.859A1.118,1.118,0,0,1,4.28.084,25.294,25.294,0,0,1,7.5.02c.272.027.149.5.149.5-.112,1.211-.187,2.3-.235,3.259A33.548,33.548,0,0,0,7.4,7.295a3.057,3.057,0,0,0,.08.672.663.663,0,0,0,.048.091c.016.016.032.027.544.059S9.7,8.234,9.8,8.255a.688.688,0,0,1,.3.139.463.463,0,0,1,.16.389c-.011.155-.1.3-2.331,2.715s-2.475,2.549-2.64,2.512a1,1,0,0,1-.411-.187c-.133-.091-.293-.208-.491-.368s-1-.955-1.68-1.621-1.248-1.2-1.691-1.605A3.728,3.728,0,0,1,.045,9.1C-.168,8.66.419,8.474.84,8.372Zm.267.933c.379.331.869.789,1.472,1.371s1.333,1.291,1.814,1.75a7.782,7.782,0,0,0,.784.688c.133.1.224.155.256.176a13.317,13.317,0,0,1,.928-1.147c.768-.88,2.246-2.491,2.9-3.179-.171-.016-.405-.032-.747-.059-1.12-.085-1.339-.171-1.44-.25a.891.891,0,0,1-.24-.288A1.346,1.346,0,0,1,6.7,7.994a24.529,24.529,0,0,1-.085-2.677c.021-1.275.107-2.816.272-4.64C6.5.655,5.347.644,4.84.655c-.037.208-.069.416-.1.629a55.1,55.1,0,0,0-.528,5.659C4.152,8.234,4.1,8.314,4.04,8.383a.852.852,0,0,1-.213.176.928.928,0,0,1-.4.117c-.235.037-.56.075-.907.128s-.72.123-1.115.2a3.658,3.658,0,0,1-.533.1C.941,9.156,1.021,9.231,1.107,9.306Z" transform="translate(0.733 0) rotate(3)" fill="#005baa"/>
    </g>
  </g>
</svg>
